<?xml version='1.0' encoding='UTF-8'?>
<graphml xmlns="http://graphml.graphdrawing.org/xmlns" xmlns:xsi="http://www.w3.org/2001/XMLSchema-instance">
<graph edgedefault="directed">

<node id="0">
  <data key="entry">true</data>
</node>

<node id="1">
  <data key="violation">true</data>
</node>

<edge source="0" target="1"/>
</graph>
</graphml>
